[
{"index": 249, "subtype": "Adornment", 
"templates": "amulet", 
"flags": ["EASY_KNOW"], 
"allocations": [{"commonness": 20, "minDepth": 10, "maxDepth": 40}]},

{"index": 231, "subtype": "Charisma", 
"templates": "amulet", 
"mods": [{"bonus": "1+M5", "flags": ["CHR"]}], 
"flags": ["SUST_CHR", ""], 
"allocations": [{"commonness": 20, "minDepth": 10, "maxDepth": 40}]},

{"index": 238, "subtype": "Devotion", 
"templates": "amulet", 
"mods": [{"bonus": "1+M3", "flags": ["WIS"]}, {"bonus": "d6", "flags": ["CHR"]}, {"bonus": "1", "flags": ["LIGHT"]}], 
"flags": ["SUST_WIS", "SUST_CHR", "", "RES_DARK", "RES_LIGHT", "RES_FIRE", "HOLD_LIFE", "GOOD"], 
"allocations": [{"commonness": 10, "minDepth": 70, "maxDepth": -1}]},

{"index": 237, "subtype": "ESP", 
"templates": "amulet", 
"mods": [{"bonus": "d5M5", "flags": ["SEARCH"]}], 
"flags": ["TELEPATHY", "", "IGNORE_ACID", "IGNORE_ELEC", "IGNORE_FIRE", "IGNORE_COLD", ""], 
"allocations": [{"commonness": 10, "minDepth": 60, "maxDepth": -1}]},

{"index": 250, "subtype": "Inertia", 
"templates": "amulet", 
"mods": [{"bonus": "-d2", "flags": ["SPEED"]}], 
"flags": ["FREE_ACT", "EASY_KNOW"], 
"allocations": [{"commonness": 20, "minDepth": 15, "maxDepth": 40}]},

{"index": 245, "subtype": "Infravision", 
"templates": "amulet", 
"mods": [{"bonus": "1+M5", "flags": ["INFRA"]}], 
"allocations": [{"commonness": 30, "minDepth": 10, "maxDepth": 70}]},

{"index": 244, "subtype": "Regeneration", 
"templates": "amulet", 
"flags": ["REGEN", "EASY_KNOW"], 
"allocations": [{"commonness": 20, "minDepth": 30, "maxDepth": -1}]},

{"index": 233, "subtype": "Resist Acid", 
"templates": "amulet", 
"flags": ["RES_ACID", "IGNORE_ACID", "EASY_KNOW"], 
"allocations": [{"commonness": 50, "minDepth": 10, "maxDepth": 50}]},

{"index": 232, "subtype": "Resist Lightning", 
"templates": "amulet", 
"flags": ["RES_ELEC", "IGNORE_ELEC", "EASY_KNOW"], 
"allocations": [{"commonness": 50, "minDepth": 10, "maxDepth": 50}]},

{"index": 234, "subtype": "Resistance", 
"templates": "amulet", 
"flags": ["RES_FIRE", "RES_ACID", "RES_ELEC", "RES_COLD", "EASY_KNOW", "", "IGNORE_ACID", "IGNORE_ELEC", "IGNORE_FIRE", "IGNORE_COLD"], 
"allocations": [{"commonness": 10, "minDepth": 60, "maxDepth": -1}]},

{"index": 246, "subtype": "Searching", 
"templates": "amulet", 
"mods": [{"bonus": "d5M5", "flags": ["SEARCH"]}], 
"allocations": [{"commonness": 20, "minDepth": 10, "maxDepth": 40}]},

{"index": 248, "subtype": "Slow Digestion", 
"templates": "amulet", 
"flags": ["SLOW_DIGEST", "EASY_KNOW"], 
"allocations": [{"commonness": 20, "minDepth": 15, "maxDepth": 40}]},

{"index": 235, "subtype": "Sustenance", 
"templates": "amulet", 
"flags": ["SUST_STR", "SUST_INT", "SUST_WIS", "SUST_DEX", "SUST_CON", "SUST_CHR", "", "HOLD_LIFE", "SLOW_DIGEST", "EASY_KNOW", "", "IGNORE_ACID", "IGNORE_ELEC", "IGNORE_FIRE", "IGNORE_COLD"], 
"allocations": [{"commonness": 10, "minDepth": 60, "maxDepth": -1}]},

{"index": 247, "subtype": "Teleportation", 
"templates": "amulet", 
"flags": ["TELEPORT", "EASY_KNOW"], 
"allocations": [{"commonness": 20, "minDepth": 10, "maxDepth": 40}]},

{"index": 240, "subtype": "Trickery", 
"templates": "amulet", 
"mods": [{"bonus": "1+M4", "flags": ["DEX"]}, {"bonus": "1+M2", "flags": ["STEALTH"]}, {"bonus": "1+d3M3", "flags": ["SEARCH", "INFRA"]}], 
"flags": ["SUST_DEX", "RES_NEXUS", "RES_POIS", "GOOD"], 
"allocations": [{"commonness": 10, "minDepth": 70, "maxDepth": -1}]},

{"index": 239, "subtype": "Weaponmastery", 
"templates": "amulet", 
"stats": {"meleeProwess": "10+M40", "meleeFinesse": "10+M40"}, 
"mods": [{"bonus": "1+M2", "flags": ["STR"]}], 
"flags": ["SUST_STR", "SUST_CON", "FREE_ACT", "", "RES_FEAR", "RES_DISEN", "GOOD"], 
"allocations": [{"commonness": 10, "minDepth": 70, "maxDepth": -1}]},

{"index": 230, "subtype": "Wisdom", 
"templates": "amulet", 
"mods": [{"bonus": "1+M5", "flags": ["WIS"]}], 
"flags": ["SUST_WIS", ""], 
"allocations": [{"commonness": 50, "minDepth": 20, "maxDepth": 90}]},

{"index": 236, "subtype": "the Magi", 
"templates": "amulet", 
"stats": {"armorMod": "d5M5"}, 
"mods": [{"bonus": "1+M3", "flags": ["SEARCH", "INT"]}], 
"flags": ["FREE_ACT", "SEE_INVIS", "SUST_INT", "RES_BLIND", "", "IGNORE_ACID", "IGNORE_ELEC", "IGNORE_FIRE", "IGNORE_COLD", "GOOD"], 
"allocations": [{"commonness": 10, "minDepth": 70, "maxDepth": -1}]},

{"index": 100, "subtype": "& Arrow~", 
"templates": "arrow", 
"display": {"ascii": {"color": [192, 128, 64]}}, 
"stats": {"dieSize": 7, "numDice": 1}, 
"allocations": [{"commonness": 30, "minDepth": 3, "maxDepth": -1, "piling": {"chance": 100, "pileSize": "7d7"}}], 
"description": "A small sharpened projectile with feathers to help it fly straight."},

{"index": 101, "subtype": "& Seeker Arrow~", 
"templates": "arrow", 
"display": {"ascii": {"color": [0, 255, 0]}}, 
"stats": {"dieSize": 7, "numDice": 3}, 
"flags": ["GOOD"], 
"allocations": [{"commonness": 20, "minDepth": 55, "maxDepth": -1, "piling": {"chance": 100, "pileSize": "7d7"}}], 
"description": "A long slender arrow that can pierce through any material."},

{"index": 105, "subtype": "& Bolt~", 
"templates": "bolt", 
"display": {"ascii": {"color": [128, 128, 128]}}, 
"stats": {"dieSize": 8, "numDice": 1}, 
"allocations": [{"commonness": 30, "minDepth": 3, "maxDepth": -1, "piling": {"chance": 100, "pileSize": "5d7"}}], 
"description": "A short projectile, heavier than an arrow."},

{"index": 106, "subtype": "& Seeker Bolt~", 
"templates": "bolt", 
"display": {"ascii": {"color": [0, 128, 64]}}, 
"stats": {"dieSize": 8, "numDice": 3}, 
"flags": ["GOOD"], 
"allocations": [{"commonness": 20, "minDepth": 65, "maxDepth": -1, "piling": {"chance": 100, "pileSize": "5d7"}}], 
"description": "A bolt that is designed to pierce through any material."},

{"index": 133, "subtype": "& Pair~ of Greaves", 
"templates": "boots", 
"display": {"ascii": {"color": [128, 128, 128]}}, 
"stats": {"baseArmor": 7}, 
"allocations": [{"commonness": 20, "minDepth": 20, "maxDepth": -1}], 
"description": "A heavy set of closed footgear, covered in several protective layers."},

{"index": 132, "subtype": "& Pair~ of Hard Boots", 
"templates": "boots", 
"display": {"ascii": {"color": [192, 128, 64]}}, 
"stats": {"baseArmor": 4}, 
"allocations": [{"commonness": 20, "minDepth": 5, "maxDepth": -1}], 
"description": "A set of closed footgear, covered to protect from fire."},

{"index": 134, "subtype": "& Pair~ of Mithril Shod Boots", 
"templates": "boots", 
"display": {"ascii": {"color": [0, 255, 255]}}, 
"stats": {"baseArmor": 8}, 
"flags": ["IGNORE_ACID", "IGNORE_FIRE"], 
"description": "A set of dwarven footgear covered in Dwarven mithril. It is the most protective and durable of all boots."},

{"index": 130, "subtype": "& Pair~ of Sandals", 
"templates": "boots", 
"display": {"ascii": {"color": [192, 128, 64]}}, 
"stats": {"baseArmor": 2}, 
"allocations": [{"commonness": 20, "minDepth": 1, "maxDepth": -1}], 
"description": "A set of open-topped footgear with soft calfskin lacings and a sturdy padded base."},

{"index": 135, "subtype": "& Pair~ of Slippers", 
"templates": "boots", 
"display": {"ascii": {"color": [192, 128, 64]}}, 
"stats": {"baseArmor": 1}, 
"allocations": [{"commonness": 20, "minDepth": 10, "maxDepth": -1}], 
"description": "A set of light, airy footgear made from soft fabric."},

{"index": 131, "subtype": "& Pair~ of Soft Boots", 
"templates": "boots", 
"display": {"ascii": {"color": [192, 128, 64]}}, 
"stats": {"baseArmor": 3}, 
"allocations": [{"commonness": 20, "minDepth": 3, "maxDepth": -1}], 
"description": "A set of closed footgear with a padded base."},

{"index": 490, "type": "bottle", "subtype": "& Empty Bottle~", 
"display": {"ascii": {"color": [255, 255, 255], "symbol": "!"}}, 
"flags": ["EASY_KNOW"]},

{"index": 110, "subtype": "& Rounded Pebble~", 
"templates": "bullet", 
"display": {"ascii": {"color": [128, 128, 128]}}, 
"stats": {"dieSize": 2, "numDice": 4}, 
"allocations": [{"commonness": 30, "minDepth": 0, "maxDepth": -1, "piling": {"chance": 100, "pileSize": "5d7"}}], 
"description": "A smooth stone that flies straight. It can be shot with a sling."},

{"index": 111, "subtype": "& Sling Shot~", 
"templates": "bullet", 
"display": {"ascii": {"color": [128, 128, 128]}}, 
"stats": {"dieSize": 3, "numDice": 4}, 
"allocations": [{"commonness": 25, "minDepth": 3, "maxDepth": -1, "piling": {"chance": 100, "pileSize": "5d7"}}], 
"description": "A heavy ball. It can be shot with a sling."},

{"index": 483, "subtype": "& Large iron chest~", 
"templates": "container", 
"display": {"ascii": {"color": [128, 128, 128]}}, 
"allocations": [{"commonness": 30, "minDepth": 35, "maxDepth": -1}]},

{"index": 485, "subtype": "& Large steel chest~", 
"templates": "container", 
"display": {"ascii": {"color": [128, 128, 128]}}, 
"allocations": [{"commonness": 30, "minDepth": 55, "maxDepth": -1}]},

{"index": 481, "subtype": "& Large wooden chest~", 
"templates": "container", 
"display": {"ascii": {"color": [128, 128, 128]}}, 
"allocations": [{"commonness": 30, "minDepth": 15, "maxDepth": -1}]},

{"index": 486, "subtype": "& Ruined chest~", 
"templates": "container", 
"display": {"ascii": {"color": [128, 128, 128]}}},

{"index": 482, "subtype": "& Small iron chest~", 
"templates": "container", 
"display": {"ascii": {"color": [128, 128, 128]}}, 
"allocations": [{"commonness": 30, "minDepth": 25, "maxDepth": -1}]},

{"index": 484, "subtype": "& Small steel chest~", 
"templates": "container", 
"display": {"ascii": {"color": [128, 128, 128]}}, 
"allocations": [{"commonness": 30, "minDepth": 45, "maxDepth": -1}]},

{"index": 480, "subtype": "& Small wooden chest~", 
"templates": "container", 
"maxCapacity": {"slots": 3},
"display": {"ascii": {"color": [128, 128, 128]}}, 
"allocations": [{"commonness": 30, "minDepth": 5, "maxDepth": -1}]},

{"subtype": "& quiver~",
"templates": "container",
"display": {"ascii": {"color": [128, 128, 128]}},
"carriedTypes": ["arrow", "bolt", "bullet"],
"maxCapacity": {"count": 40, "slots": 23},
"allocations": [{"commonness": 30, "minDepth": 5, "maxDepth": -1}],
"description": "A bag that can carry up to 40 arrows, bolts, or sling bullets in any combination."
},

{"index": 170, "subtype": "& Cloak~", 
"templates": "cloak", 
"display": {"ascii": {"color": [0, 128, 64]}}, 
"stats": {"baseArmor": 1}, 
"allocations": [{"commonness": 25, "minDepth": 1, "maxDepth": -1}], 
"description": "A traveller's sturdy outer garment."},

{"index": 171, "subtype": "& Heavy Cloak~", 
"templates": "cloak", 
"display": {"ascii": {"color": [255, 128, 0]}}, 
"stats": {"baseArmor": 3}, 
"allocations": [{"commonness": 25, "minDepth": 20, "maxDepth": -1}], 
"description": "A heavy cloak, warm and lined; a luxury."},

{"index": 144, "subtype": "& Crown~", 
"templates": "crown", 
"display": {"ascii": {"color": [128, 128, 128]}}, 
"allocations": [{"commonness": 35, "minDepth": 45, "maxDepth": -1}], 
"description": "An open-topped headgear used by royalty."},

{"index": 542, "subtype": "& Massive Iron Crown~", 
"templates": "crown", 
"display": {"ascii": {"color": [96, 96, 96]}}, 
"flags": ["INSTA_ART"]},

{"index": 122, "subtype": "& Mattock~", 
"templates": "digger", 
"display": {"ascii": {"color": [96, 96, 96]}}, 
"stats": {"dieSize": 8, "balance": 0.1, "heft": 0.9, "numDice": 1}, 
"mods": [{"bonus": "3", "flags": ["TUNNEL"]}], 
"allocations": [{"commonness": 20, "minDepth": 50, "maxDepth": -1}], 
"description": "Two sharp blades on a pole, used for mining or combat."},

{"index": 121, "subtype": "& Pick~", 
"templates": "digger", 
"display": {"ascii": {"color": [0, 128, 64]}}, 
"stats": {"dieSize": 3, "balance": 0.2, "heft": 0.8, "numDice": 1}, 
"mods": [{"bonus": "2", "flags": ["TUNNEL"]}], 
"allocations": [{"commonness": 20, "minDepth": 30, "maxDepth": -1}], 
"description": "A sharp pointed spike, used for mining or combat."},

{"index": 120, "subtype": "& Shovel~", 
"templates": "digger", 
"display": {"ascii": {"color": [128, 128, 128]}}, 
"stats": {"dieSize": 2, "balance": 0.4, "heft": 0.6, "numDice": 1}, 
"mods": [{"bonus": "1", "flags": ["TUNNEL"]}], 
"allocations": [{"commonness": 20, "minDepth": 5, "maxDepth": -1}], 
"description": "A small flat blade used for digging."},

{"index": 511, "subtype": "Balance Dragon Scale Mail~", 
"templates": "dragon armor", 
"display": {"ascii": {"color": [144, 32, 255]}}, 
"stats": {"baseArmor": 50}, 
"flags": ["RES_SOUND", "RES_SHARD", "RES_CHAOS", "RES_DISEN"]},

{"index": 500, "subtype": "Black Dragon Scale Mail~", 
"templates": "dragon armor", 
"display": {"ascii": {"color": [128, 128, 128]}}, 
"stats": {"baseArmor": 16}, 
"flags": ["RES_ACID"]},

{"index": 501, "subtype": "Blue Dragon Scale Mail~", 
"templates": "dragon armor", 
"display": {"ascii": {"color": [0, 64, 255]}}, 
"stats": {"baseArmor": 12}, 
"flags": ["RES_ELEC"]},

{"index": 508, "subtype": "Bronze Dragon Scale Mail~", 
"templates": "dragon armor", 
"display": {"ascii": {"color": [192, 128, 64]}}, 
"stats": {"baseArmor": 18}, 
"flags": ["RES_CONFU"]},

{"index": 510, "subtype": "Chaos Dragon Scale Mail~", 
"templates": "dragon armor", 
"display": {"ascii": {"color": [144, 32, 255]}}, 
"stats": {"baseArmor": 40}, 
"flags": ["RES_CHAOS", "RES_DISEN"]},

{"index": 509, "subtype": "Gold Dragon Scale Mail~", 
"templates": "dragon armor", 
"display": {"ascii": {"color": [255, 255, 0]}}, 
"stats": {"baseArmor": 28}, 
"flags": ["RES_SOUND"]},

{"index": 504, "subtype": "Green Dragon Scale Mail~", 
"templates": "dragon armor", 
"display": {"ascii": {"color": [0, 128, 64]}}, 
"stats": {"baseArmor": 20}, 
"flags": ["RES_POIS"]},

{"index": 507, "subtype": "Law Dragon Scale Mail~", 
"templates": "dragon armor", 
"display": {"ascii": {"color": [0, 255, 255]}}, 
"stats": {"baseArmor": 36}, 
"flags": ["RES_SOUND", "RES_SHARD"]},

{"index": 505, "subtype": "Multi-Hued Dragon Scale Mail~", 
"templates": "dragon armor", 
"display": {"ascii": {"color": [144, 32, 255]}}, 
"stats": {"baseArmor": 45}, 
"flags": ["RES_ACID", "RES_ELEC", "RES_FIRE", "RES_COLD", "RES_POIS"]},

{"index": 512, "subtype": "Power Dragon Scale Mail~", 
"templates": "dragon armor", 
"display": {"ascii": {"color": [144, 32, 255]}}, 
"stats": {"baseArmor": 60}, 
"flags": ["RES_ACID", "RES_FIRE", "RES_COLD", "RES_ELEC", "RES_POIS", "RES_CONFU", "RES_DISEN", "RES_SOUND", "RES_SHARD", "", "RES_LIGHT", "RES_DARK", "RES_CHAOS", ""]},

{"index": 506, "subtype": "Pseudo-Dragon Scale Mail~", 
"templates": "dragon armor", 
"display": {"ascii": {"color": [255, 128, 0]}}, 
"stats": {"baseArmor": 32}, 
"flags": ["RES_LIGHT", "RES_DARK"]},

{"index": 503, "subtype": "Red Dragon Scale Mail~", 
"templates": "dragon armor", 
"display": {"ascii": {"color": [192, 0, 0]}}, 
"stats": {"baseArmor": 24}, 
"flags": ["RES_FIRE"]},

{"index": 502, "subtype": "White Dragon Scale Mail~", 
"templates": "dragon armor", 
"display": {"ascii": {"color": [255, 255, 255]}}, 
"stats": {"baseArmor": 14}, 
"flags": ["RES_COLD"]},

{"index": 4, "type": "flask", "subtype": "& Flask~ of oil", 
"display": {"ascii": {"color": [255, 255, 0], "symbol": "!"}}, 
"mods": [{"bonus": "50", "flags": ["BRAND_FIRE"]}], 
"flags": ["EASY_KNOW"], 
"allocations": [{"commonness": 50, "minDepth": 1, "maxDepth": -1}], 
"description": "It can be used to fuel a lantern with 7500 turns of light, up to a maximum of 15000 turns of light.  When thrown, it is considered lit, so it does more than nominal damage (which occurs even against creatures resistant to fire)."},

{"index": 12, "subtype": "& Piece~ of Elvish Waybread", 
"templates": "food", 
"display": {"ascii": {"color": [0, 255, 255]}}, 
"allocations": [{"commonness": 40, "minDepth": 30, "maxDepth": -1, "piling": {"chance": 10, "pileSize": "1d3"}}], 
"description": "Food of the elves is always good; their waybread is no exception.  These thin cakes are wrapped in leaves and keep their tastiness for months."},

{"index": 10, "subtype": "& Ration~ of Food", 
"templates": "food", 
"display": {"ascii": {"color": [192, 128, 64]}}, 
"allocations": [{"commonness": 40, "minDepth": 0, "maxDepth": 50, "piling": {"chance": 100, "pileSize": "1d5"}}], 
"description": "This nutritious but fairly bland food is familiar to anyone contemplating long journeys."},

{"index": 11, "subtype": "& Slime Mold~", 
"templates": "food", 
"display": {"ascii": {"color": [0, 128, 64]}}, 
"allocations": [{"commonness": 40, "minDepth": 5, "maxDepth": 60, "piling": {"chance": 100, "pileSize": "2d3"}}], 
"description": "A strange fungal growth, prone to moving if not observed.  Not very tasty but quite filling."},

{"index": 19, "subtype": "Clear Mind", 
"templates": "food", 
"display": {"ascii": {"color": "flavor"}},
"flags": ["FLAVORED"], 
"allocations": [{"commonness": 10, "minDepth": 1, "maxDepth": 40, "piling": {"chance": 70, "pileSize": "1d4"}}]},

{"index": 24, "subtype": "Debility", 
"templates": "food", 
"display": {"ascii": {"color": "flavor"}}, 
"flags": ["FLAVORED"], 
"allocations": [{"commonness": 10, "minDepth": 1, "maxDepth": 40, "piling": {"chance": 70, "pileSize": "1d4"}}]},

{"index": 20, "subtype": "Emergency", 
"templates": "food", 
"display": {"ascii": {"color": "flavor"}}, 
"flags": ["FLAVORED"], 
"allocations": [{"commonness": 10, "minDepth": 1, "maxDepth": -1, "piling": {"chance": 70, "pileSize": "1d4"}}]},

{"index": 17, "subtype": "Fast Recovery", 
"templates": "food", 
"display": {"ascii": {"color": "flavor"}}, 
"flags": ["FLAVORED"], 
"allocations": [{"commonness": 10, "minDepth": 1, "maxDepth": 40, "piling": {"chance": 70, "pileSize": "1d4"}}]},

{"index": 26, "subtype": "Purging", 
"templates": "food", 
"display": {"ascii": {"color": "flavor"}}, 
"flags": ["FLAVORED"], 
"allocations": [{"commonness": 1, "minDepth": 10, "maxDepth": -1, "piling": {"chance": 70, "pileSize": "1d4"}}]},

{"index": 16, "subtype": "Second Sight", 
"templates": "food", 
"display": {"ascii": {"color": "flavor"}}, 
"flags": ["FLAVORED"], 
"allocations": [{"commonness": 10, "minDepth": 1, "maxDepth": -1, "piling": {"chance": 70, "pileSize": "1d4"}}]},

{"index": 25, "subtype": "Sprinting", 
"templates": "food", 
"display": {"ascii": {"color": "flavor"}}, 
"flags": ["FLAVORED"], 
"allocations": [{"commonness": 1, "minDepth": 10, "maxDepth": -1, "piling": {"chance": 70, "pileSize": "1d4"}}]},

{"index": 22, "subtype": "Stoneskin", 
"templates": "food", 
"display": {"ascii": {"color": "flavor"}}, 
"flags": ["FLAVORED"], 
"allocations": [{"commonness": 10, "minDepth": 1, "maxDepth": 40, "piling": {"chance": 70, "pileSize": "1d4"}}], 
"description": "Its poison turns your skin to stone, albeit briefly."},

{"index": 21, "subtype": "Terror", 
"templates": "food", 
"display": {"ascii": {"color": "flavor"}}, 
"flags": ["FLAVORED"], 
"allocations": [{"commonness": 10, "minDepth": 1, "maxDepth": 40, "piling": {"chance": 70, "pileSize": "1d4"}}]},

{"index": 23, "subtype": "Turbulence", 
"templates": "food", 
"display": {"ascii": {"color": "flavor"}},
"flags": ["FLAVORED"]},

{"index": 18, "subtype": "Vigor", 
"templates": "food", 
"display": {"ascii": {"color": "flavor"}}, 
"flags": ["FLAVORED"], 
"allocations": [{"commonness": 10, "minDepth": 1, "maxDepth": -1, "piling": {"chance": 10, "pileSize": "1d3"}}]},

{"index": 176, "subtype": "& Set~ of Bracers", 
"templates": "gloves", 
"display": {"ascii": {"color": [0, 255, 255]}}, 
"stats": {"baseArmor": 6}, 
"allocations": [{"commonness": 20, "minDepth": 40, "maxDepth": -1}], 
"description": "A very protective set of handgear, covering the entire arm."},

{"index": 177, "subtype": "& Set~ of Caestus", 
"templates": "gloves", 
"display": {"ascii": {"color": [192, 128, 64]}}, 
"stats": {"meleeProwess": "d30", "baseArmor": 5}, 
"allocations": [{"commonness": 10, "minDepth": 20, "maxDepth": -1}], 
"description": "An ancient battle glove designed for hand-to-hand fighting. Its layered leather thongs are enhanced for combat by bloody-looking spikes."},

{"index": 175, "subtype": "& Set~ of Gauntlets", 
"templates": "gloves", 
"display": {"ascii": {"color": [128, 128, 128]}}, 
"stats": {"baseArmor": 3}, 
"allocations": [{"commonness": 20, "minDepth": 10, "maxDepth": -1}], 
"description": "A set of sturdy handgear."},

{"index": 174, "subtype": "& Set~ of Gloves", 
"templates": "gloves", 
"display": {"ascii": {"color": [192, 128, 64]}}, 
"stats": {"baseArmor": 1}, 
"allocations": [{"commonness": 20, "minDepth": 1, "maxDepth": -1}], 
"description": "A set of soft, flexible handgear."},

{"index": 51, "subtype": "& Ball-and-Chain~", 
"templates": "hafted weapon", 
"display": {"ascii": {"color": [96, 96, 96]}}, 
"stats": {"dieSize": 2, "balance": 0.65, "heft": 0.4, "numDice": 4}, 
"allocations": [{"commonness": 20, "minDepth": 10, "maxDepth": -1}], 
"description": "A heavy spiked ball attached to chain."},

{"index": 56, "subtype": "& Club~", 
"templates": "hafted weapon", 
"display": {"ascii": {"color": [0, 255, 255]}}, 
"stats": {"dieSize": 4, "balance": 0.2, "heft": 0.8, "numDice": 1}, 
"allocations": [{"commonness": 20, "minDepth": 0, "maxDepth": -1}], 
"description": "A stout length of wood, banded with metal."},

{"index": 53, "subtype": "& Flail~", 
"templates": "hafted weapon", 
"display": {"ascii": {"color": [96, 96, 96]}}, 
"stats": {"dieSize": 6, "balance": 0.3, "heft": 0.7, "numDice": 2}, 
"allocations": [{"commonness": 20, "minDepth": 8, "maxDepth": -1}], 
"description": "Several spiked balls attached to chains and used as a scourge."},

{"index": 60, "subtype": "& Great Hammer~", 
"templates": "hafted weapon", 
"display": {"ascii": {"color": [96, 96, 96]}}, 
"stats": {"dieSize": 16, "balance": 0.1, "heft": 0.9, "numDice": 1}, 
"allocations": [{"commonness": 20, "minDepth": 20, "maxDepth": -1}], 
"description": "A large hammer requiring two hands to wield for all but the exceptionally strong."},

{"index": 55, "subtype": "& Mace~", 
"templates": "hafted weapon", 
"display": {"ascii": {"color": [96, 96, 96]}}, 
"stats": {"dieSize": 4, "balance": 0.25, "heft": 0.75, "numDice": 2}, 
"allocations": [{"commonness": 20, "minDepth": 5, "maxDepth": -1}], 
"description": "A heavy metal ball at the end of a stout wooden club."},

{"index": 59, "subtype": "& Maul~", 
"templates": "hafted weapon", 
"display": {"ascii": {"color": [96, 96, 96]}}, 
"stats": {"dieSize": 9, "balance": 0.2, "heft": 0.8, "numDice": 2}, 
"allocations": [{"commonness": 20, "minDepth": 20, "maxDepth": -1}], 
"description": "A heavy war hammer with a larger head."},

{"index": 540, "subtype": "& Mighty Hammer~", 
"templates": "hafted weapon", 
"display": {"ascii": {"color": [96, 96, 96]}}, 
"stats": {"dieSize": 9, "numDice": 3}, 
"flags": ["INSTA_ART"]},

{"index": 52, "subtype": "& Morning Star~", 
"templates": "hafted weapon", 
"display": {"ascii": {"color": [96, 96, 96]}}, 
"stats": {"dieSize": 12, "balance": 0.15, "heft": 0.85, "numDice": 1}, 
"allocations": [{"commonness": 20, "minDepth": 8, "maxDepth": -1}], 
"description": "A mace with a spiked end."},

{"index": 57, "subtype": "& Quarterstaff~", 
"templates": "hafted weapon", 
"display": {"ascii": {"color": [192, 128, 64]}}, 
"stats": {"dieSize": 4, "balance": 0.55, "heft": 0.55, "numDice": 2}, 
"allocations": [{"commonness": 20, "minDepth": 10, "maxDepth": -1}], 
"description": "A long, solid staff, wielded with two hands."},

{"index": 54, "subtype": "& Two-Handed Great Flail~", 
"templates": "hafted weapon", 
"display": {"ascii": {"color": [255, 255, 0]}}, 
"stats": {"dieSize": 10, "balance": 0.1, "heft": 0.9, "numDice": 2}, 
"allocations": [{"commonness": 20, "minDepth": 45, "maxDepth": -1}], 
"description": "A flail requiring two hands for all but the exceptionally strong."},

{"index": 58, "subtype": "& War Hammer~", 
"templates": "hafted weapon", 
"display": {"ascii": {"color": [96, 96, 96]}}, 
"stats": {"dieSize": 9, "balance": 0.25, "heft": 0.75, "numDice": 1}, 
"allocations": [{"commonness": 20, "minDepth": 5, "maxDepth": -1}], 
"description": "A hammer on a long pole, with a small spike on the back end."},

{"index": 50, "subtype": "& Whip~", 
"templates": "hafted weapon", 
"display": {"ascii": {"color": [96, 96, 96]}}, 
"stats": {"dieSize": 1, "balance": 0.8, "heft": 0.1, "numDice": 2}, 
"allocations": [{"commonness": 20, "minDepth": 0, "maxDepth": -1}], 
"description": "A long flexible leather line. Its loud, cracking sound is more likely to intimidate than wound."},

{"index": 160, "subtype": "& Breastplate~", 
"templates": "hard armor", 
"display": {"ascii": {"color": [192, 192, 192]}}, 
"stats": {"meleeFinesse": "-30", "baseArmor": 40}, 
"allocations": [{"commonness": 20, "minDepth": 30, "maxDepth": -1}], 
"description": "A torso covering of two thick metal plates."},

{"index": 151, "subtype": "& Jerkin~", 
"templates": "soft armor", 
"display": {"ascii": {"color": [192, 128, 64]}}, 
"stats": {"baseArmor": 8}, 
"allocations": [{"commonness": 20, "minDepth": 3, "maxDepth": -1}], 
"description": "A soft jerkin that covers the vital organs."},

{"index": 150, "subtype": "& Robe~", 
"templates": "soft armor", 
"display": {"ascii": {"color": [0, 64, 255]}}, 
"stats": {"baseArmor": 2}, 
"allocations": [{"commonness": 20, "minDepth": 1, "maxDepth": -1}], 
"description": "An unrestrictive tunic of soft fabric."},

{"index": 157, "subtype": "Augmented Chain Mail~", 
"templates": "hard armor", 
"display": {"ascii": {"color": [128, 128, 128]}}, 
"stats": {"meleeFinesse": "-20", "baseArmor": 42}, 
"allocations": [{"commonness": 20, "minDepth": 35, "maxDepth": -1}], 
"description": "Chain mail covered by plates in key locations."},

{"index": 153, "subtype": "Banded Armour~", 
"templates": "soft armor", 
"display": {"ascii": {"color": [192, 128, 64]}}, 
"stats": {"meleeFinesse": "-10", "baseArmor": 16}, 
"allocations": [{"commonness": 20, "minDepth": 10, "maxDepth": -1}], 
"description": "A cured jerkin reinforced with horizontal bands."},

{"index": 159, "subtype": "Brigandine Armour~", 
"templates": "hard armor", 
"display": {"ascii": {"color": [128, 128, 128]}}, 
"stats": {"meleeFinesse": "-30", "baseArmor": 48}, 
"allocations": [{"commonness": 20, "minDepth": 45, "maxDepth": -1}], 
"description": "A cloth jerkin covered with thick metal plates."},

{"index": 156, "subtype": "Chain Mail~", 
"templates": "hard armor", 
"display": {"ascii": {"color": [128, 128, 128]}}, 
"stats": {"meleeFinesse": "-20", "baseArmor": 32}, 
"allocations": [{"commonness": 20, "minDepth": 20, "maxDepth": -1}], 
"description": "A flexible set of mail made by linked chains."},

{"index": 162, "subtype": "Full Plate Armour~", 
"templates": "hard armor", 
"display": {"ascii": {"color": [192, 192, 192]}}, 
"stats": {"meleeFinesse": "-30", "baseArmor": 62}, 
"allocations": [{"commonness": 15, "minDepth": 55, "maxDepth": -1}], 
"description": "A set of solid metal plates used to cover the torso, arms and legs."},

{"index": 161, "subtype": "Lamellar Armour~", 
"templates": "hard armor", 
"display": {"ascii": {"color": [192, 192, 192]}}, 
"stats": {"meleeFinesse": "-30", "baseArmor": 58}, 
"allocations": [{"commonness": 20, "minDepth": 50, "maxDepth": -1}], 
"description": "A set of armor similar to scale mail but without the leather backing and with thicker plates."},

{"index": 158, "subtype": "Plate Mail~", 
"templates": "hard armor", 
"display": {"ascii": {"color": [128, 128, 128]}}, 
"stats": {"meleeFinesse": "-20", "baseArmor": 45}, 
"allocations": [{"commonness": 20, "minDepth": 40, "maxDepth": -1}], 
"description": "A breastplate with shoulder guards, over a suit of chainmail."},

{"index": 163, "subtype": "Ribbed Plate Armour~", 
"templates": "hard armor", 
"display": {"ascii": {"color": [192, 192, 192]}}, 
"stats": {"meleeFinesse": "-30", "baseArmor": 66}, 
"allocations": [{"commonness": 15, "minDepth": 60, "maxDepth": -1}], 
"description": "A set of overlapping plates, covering the entire body."},

{"index": 155, "subtype": "Ring Mail~", 
"templates": "hard armor", 
"display": {"ascii": {"color": [128, 128, 128]}}, 
"stats": {"meleeFinesse": "-20", "baseArmor": 38}, 
"allocations": [{"commonness": 20, "minDepth": 25, "maxDepth": -1}], 
"description": "A leather jerkin covered with heavy overlapping metal rings."},

{"index": 154, "subtype": "Splinted Armour~", 
"templates": "soft armor", 
"display": {"ascii": {"color": [192, 128, 64]}}, 
"stats": {"meleeFinesse": "-10", "baseArmor": 20}, 
"allocations": [{"commonness": 20, "minDepth": 15, "maxDepth": -1}], 
"description": "A set of cured bodywear made from overlapping scales splinted together."},

{"index": 152, "subtype": "Studded Armour~", 
"templates": "soft armor", 
"display": {"ascii": {"color": [192, 128, 64]}}, 
"stats": {"meleeFinesse": "-10", "baseArmor": 12}, 
"allocations": [{"commonness": 20, "minDepth": 5, "maxDepth": -1}], 
"description": "A jerkin fastened with metal for extra protection."},

{"index": 143, "subtype": "& Full Helm~", 
"templates": "helm", 
"display": {"ascii": {"color": [192, 192, 192]}}, 
"stats": {"baseArmor": 9}, 
"allocations": [{"commonness": 20, "minDepth": 40, "maxDepth": -1}], 
"description": "A complete covering of the head, neck and shoulders."},

{"index": 141, "subtype": "& Hard Cap~", 
"templates": "helm", 
"display": {"ascii": {"color": [128, 128, 128]}}, 
"stats": {"baseArmor": 3}, 
"allocations": [{"commonness": 20, "minDepth": 10, "maxDepth": -1}], 
"description": "A stout piece of headgear."},

{"index": 142, "subtype": "& Helm~", 
"templates": "helm", 
"display": {"ascii": {"color": [128, 128, 128]}}, 
"stats": {"baseArmor": 7}, 
"allocations": [{"commonness": 20, "minDepth": 20, "maxDepth": -1}], 
"description": "A heavy piece of headgear covering the whole face."},

{"index": 140, "subtype": "& Soft Cap~", 
"templates": "helm", 
"display": {"ascii": {"color": [128, 64, 0]}}, 
"stats": {"baseArmor": 2}, 
"allocations": [{"commonness": 20, "minDepth": 3, "maxDepth": -1}], 
"description": "A simple cloth head covering."},

{"index": 492, "subtype": "& Broken Stick~", 
"templates": "junk", 
"display": {"ascii": {"color": [192, 0, 0]}}},

{"index": 491, "subtype": "& Shard~ of Pottery", 
"templates": "junk", 
"display": {"ascii": {"color": [192, 0, 0]}}},

{"index": 94, "subtype": "& Heavy Crossbow~", 
"templates": "launcher", 
"display": {"ascii": {"color": [128, 128, 128]}}, 
"stats": {"balance": 0.5, "heft": 1.0}, 
"allocations": [{"commonness": 20, "minDepth": 30, "maxDepth": -1}], 
"description": "A large mechanical bow, used to fire bolts with great range and deadly power."},

{"index": 93, "subtype": "& Light Crossbow~", 
"templates": "launcher", 
"display": {"ascii": {"color": [128, 128, 128]}}, 
"stats": {"balance": 0.5, "heft": 0.75}, 
"allocations": [{"commonness": 20, "minDepth": 15, "maxDepth": -1}], 
"description": "A small mechanical bow, used to fire bolts."},

{"index": 92, "subtype": "& Long Bow~", 
"templates": "launcher", 
"display": {"ascii": {"color": [192, 128, 64]}}, 
"stats": {"balance": 0.5, "heft": 0.75}, 
"allocations": [{"commonness": 20, "minDepth": 10, "maxDepth": -1}], 
"description": "A hunting weapon, used to fire arrows from afar."},

{"index": 91, "subtype": "& Short Bow~", 
"templates": "launcher", 
"display": {"ascii": {"color": [192, 128, 64]}}, 
"stats": {"balance": 0.5, "heft": 0.5}, 
"allocations": [{"commonness": 20, "minDepth": 3, "maxDepth": -1}], 
"description": "A bow, used to fire arrows at close range."},

{"index": 90, "subtype": "& Sling~", 
"templates": "launcher", 
"display": {"ascii": {"color": [128, 64, 0]}}, 
"stats": {"balance": 0.5, "heft": 0.5}, 
"allocations": [{"commonness": 20, "minDepth": 1, "maxDepth": -1}], 
"description": "A strap of leather used to fling shots and debris."},

{"index": 3, "subtype": "& Lantern~", 
"templates": "light source", 
"display": {"ascii": {"color": [192, 128, 64]}}, 
"mods": [{"bonus": "2", "flags": ["LIGHT"]}], 
"flags": ["IGNORE_FIRE"], 
"allocations": [{"commonness": 70, "minDepth": 5, "maxDepth": -1}]},

{"index": 2, "subtype": "& Wooden Torch~", 
"templates": "light source", 
"display": {"ascii": {"color": [128, 64, 0]}}, 
"mods": [{"bonus": "1", "flags": ["LIGHT"]}], 
"allocations": [{"commonness": 70, "minDepth": 1, "maxDepth": 40}]},

{"index": 468, "type": "magic book", "subtype": "& Tome of High Magick", 
"display": {"ascii": {"color": [192, 0, 0], "symbol": "?"}}, 
"flags": ["INSTA_ART"]},

{"index": 469, "type": "magic book", "subtype": "& Tome of High Magick", 
"display": {"ascii": {"color": [192, 0, 0], "symbol": "?"}}, 
"flags": ["INSTA_ART"]},

{"index": 470, "type": "magic book", "subtype": "& Tome of High Magick", 
"display": {"ascii": {"color": [192, 0, 0], "symbol": "?"}}, 
"flags": ["INSTA_ART"]},

{"index": 471, "type": "magic book", "subtype": "& Tome of High Magick", 
"display": {"ascii": {"color": [192, 0, 0], "symbol": "?"}}, 
"flags": ["INSTA_ART"]},

{"index": 472, "type": "magic book", "subtype": "& Tome of High Magick", 
"display": {"ascii": {"color": [192, 0, 0], "symbol": "?"}}, 
"flags": ["INSTA_ART"]},

{"index": 461, "subtype": "[Conjurings and Tricks]", 
"templates": "magic book", 
"allocations": [{"commonness": 50, "minDepth": 10, "maxDepth": -1}]},

{"index": 462, "subtype": "[Incantations and Illusions]", 
"templates": "magic book", 
"allocations": [{"commonness": 50, "minDepth": 20, "maxDepth": -1}]},

{"index": 460, "subtype": "[Magic for Beginners]", 
"templates": "magic book", 
"allocations": [{"commonness": 50, "minDepth": 5, "maxDepth": -1}]},

{"index": 463, "subtype": "[Sorcery and Evocations]", 
"templates": "magic book", 
"allocations": [{"commonness": 50, "minDepth": 30, "maxDepth": -1}]},

{"index": 530, "subtype": "adamantite", 
"templates": "money", 
"display": {"ascii": {"color": [0, 255, 0]}}},

{"index": 520, "subtype": "copper", 
"templates": "money", 
"display": {"ascii": {"color": [128, 64, 0]}}},

{"index": 527, "subtype": "diamonds", 
"templates": "money", 
"display": {"ascii": {"color": [255, 255, 255]}}},

{"index": 528, "subtype": "emeralds", 
"templates": "money", 
"display": {"ascii": {"color": [0, 128, 64]}}},

{"index": 522, "subtype": "garnets", 
"templates": "money", 
"display": {"ascii": {"color": [192, 0, 0]}}},

{"index": 523, "subtype": "gold", 
"templates": "money", 
"display": {"ascii": {"color": [255, 255, 0]}}},

{"index": 529, "subtype": "mithril", 
"templates": "money", 
"display": {"ascii": {"color": [0, 255, 255]}}},

{"index": 524, "subtype": "opals", 
"templates": "money", 
"display": {"ascii": {"color": [192, 192, 192]}}},

{"index": 526, "subtype": "rubies", 
"templates": "money", 
"display": {"ascii": {"color": [192, 0, 0]}}},

{"index": 525, "subtype": "sapphires", 
"templates": "money", 
"display": {"ascii": {"color": [0, 64, 255]}}},

{"index": 521, "subtype": "silver", 
"templates": "money", 
"display": {"ascii": {"color": [128, 128, 128]}}},

{"index": 0, "type": "null", "subtype": "<pile>", 
"display": {"ascii": {"color": [255, 255, 255], "symbol": "&"}}},

{"index": 6, "type": "null", "subtype": "<unknown item>", 
"display": {"ascii": {"color": [192, 0, 0], "symbol": "*"}}},

{"index": 7, "type": "null", "subtype": "<unknown treasure>", 
"display": {"ascii": {"color": [255, 128, 0], "symbol": "*"}}},

{"index": 66, "subtype": "& Awl-Pike~", 
"templates": "polearm", 
"display": {"ascii": {"color": [128, 128, 128]}}, 
"stats": {"dieSize": 4, "balance": 0.65, "heft": 0.35, "numDice": 2}, 
"allocations": [{"commonness": 20, "minDepth": 10, "maxDepth": -1}], 
"description": "A body-length spear used for thrusting."},

{"index": 72, "subtype": "& Battle Axe~", 
"templates": "polearm", 
"display": {"ascii": {"color": [128, 128, 128]}}, 
"stats": {"dieSize": 8, "balance": 0.3, "heft": 0.7, "numDice": 2}, 
"allocations": [{"commonness": 20, "minDepth": 15, "maxDepth": -1}], 
"description": "An axe favored by the Dwarves of the north."},

{"index": 70, "subtype": "& Beaked Axe~", 
"templates": "polearm", 
"display": {"ascii": {"color": [128, 128, 128]}}, 
"stats": {"dieSize": 4, "balance": 0.55, "heft": 0.55, "numDice": 3}, 
"allocations": [{"commonness": 20, "minDepth": 15, "maxDepth": -1}], 
"description": "A small, thin axe attached to a long pole."},

{"index": 71, "subtype": "& Broad Axe~", 
"templates": "polearm", 
"display": {"ascii": {"color": [128, 128, 128]}}, 
"stats": {"dieSize": 6, "balance": 0.3, "heft": 0.7, "numDice": 2}, 
"allocations": [{"commonness": 20, "minDepth": 15, "maxDepth": -1}], 
"description": "A chopping weapon used for limbs of either animals or trees."},

{"index": 76, "subtype": "& Glaive~", 
"templates": "polearm", 
"display": {"ascii": {"color": [128, 128, 128]}}, 
"stats": {"dieSize": 2, "balance": 0.8, "heft": 0.2, "numDice": 6}, 
"allocations": [{"commonness": 20, "minDepth": 20, "maxDepth": -1}], 
"description": "A long single blade attached to a pole."},

{"index": 74, "subtype": "& Great Axe~", 
"templates": "polearm", 
"display": {"ascii": {"color": [128, 128, 128]}}, 
"stats": {"dieSize": 10, "balance": 0.1, "heft": 0.9, "numDice": 2}, 
"allocations": [{"commonness": 20, "minDepth": 40, "maxDepth": -1}], 
"description": "A powerful axe, wielded with both hands."},

{"index": 68, "subtype": "& Halberd~", 
"templates": "polearm", 
"display": {"ascii": {"color": [128, 128, 128]}}, 
"stats": {"dieSize": 5, "balance": 0.3, "heft": 0.7, "numDice": 3}, 
"allocations": [{"commonness": 20, "minDepth": 20, "maxDepth": -1}], 
"description": "A cross between a spear and an axe."},

{"index": 77, "subtype": "& Lance~", 
"templates": "polearm", 
"display": {"ascii": {"color": [128, 128, 128]}}, 
"stats": {"dieSize": 8, "balance": 0.2, "heft": 0.8, "numDice": 2}, 
"allocations": [{"commonness": 20, "minDepth": 10, "maxDepth": -1}], 
"description": "A heavy, sharpened polearm used by mounted warriors."},

{"index": 73, "subtype": "& Lochaber Axe~", 
"templates": "polearm", 
"display": {"ascii": {"color": [96, 96, 96]}}, 
"stats": {"dieSize": 8, "balance": 0.2, "heft": 0.8, "numDice": 3}, 
"allocations": [{"commonness": 20, "minDepth": 45, "maxDepth": -1}], 
"description": "A halberd with an extra long pole."},

{"index": 79, "subtype": "& Lucerne Hammer~", 
"templates": "polearm", 
"display": {"ascii": {"color": [0, 255, 255]}}, 
"stats": {"dieSize": 12, "balance": 0.2, "heft": 0.8, "numDice": 1}, 
"allocations": [{"commonness": 20, "minDepth": 15, "maxDepth": -1}], 
"description": "A war hammer with a very long spike."},

{"index": 69, "subtype": "& Pike~", 
"templates": "polearm", 
"display": {"ascii": {"color": [128, 128, 128]}}, 
"stats": {"dieSize": 2, "balance": 0.6, "heft": 0.45, "numDice": 4}, 
"allocations": [{"commonness": 20, "minDepth": 15, "maxDepth": -1}], 
"description": "A very long spear often used against mounted opponents."},

{"index": 75, "subtype": "& Scythe~", 
"templates": "polearm", 
"display": {"ascii": {"color": [128, 128, 128]}}, 
"stats": {"dieSize": 3, "balance": 0.55, "heft": 0.55, "numDice": 5}, 
"allocations": [{"commonness": 20, "minDepth": 15, "maxDepth": -1}], 
"description": "A chopping weapon that is often used in farms and is a symbol of death."},

{"index": 65, "subtype": "& Spear~", 
"templates": "polearm", 
"display": {"ascii": {"color": [128, 128, 128]}}, 
"stats": {"dieSize": 2, "balance": 0.75, "heft": 0.25, "numDice": 3}, 
"allocations": [{"commonness": 20, "minDepth": 5, "maxDepth": -1}], 
"description": "A long stick with a sharpened point."},

{"index": 67, "subtype": "& Trident~", 
"templates": "polearm", 
"display": {"ascii": {"color": [255, 255, 0]}}, 
"stats": {"dieSize": 3, "balance": 0.7, "heft": 0.3, "numDice": 3}, 
"allocations": [{"commonness": 20, "minDepth": 5, "maxDepth": -1}], 
"description": "A three-pointed spear that is a symbol of sea-dwellers."},

{"index": 342, "subtype": "*Enlightenment*", 
"templates": "potion", 
"flags": ["GOOD"], 
"allocations": [{"commonness": 8, "minDepth": 70, "maxDepth": -1}]},

{"index": 322, "subtype": "*Healing*", 
"templates": "potion", 
"flags": ["GOOD"], 
"allocations": [{"commonness": 20, "minDepth": 40, "maxDepth": -1}]},

{"index": 316, "subtype": "Augmentation", 
"templates": "potion", 
"flags": ["GOOD"], 
"allocations": [{"commonness": 10, "minDepth": 60, "maxDepth": -1}]},

{"index": 345, "subtype": "Berserk Strength", 
"templates": "potion", 
"allocations": [{"commonness": 40, "minDepth": 3, "maxDepth": -1, "piling": {"chance": 25, "pileSize": "2d1"}}]},

{"index": 357, "subtype": "Blindness", 
"templates": "potion", 
"allocations": [{"commonness": 10, "minDepth": 0, "maxDepth": 10, "piling": {"chance": 70, "pileSize": "2d3"}}]},

{"index": 346, "subtype": "Boldness", 
"templates": "potion", 
"allocations": [{"commonness": 40, "minDepth": 1, "maxDepth": 90, "piling": {"chance": 25, "pileSize": "2d1"}}]},

{"index": 333, "subtype": "Brawn", 
"templates": "potion", 
"allocations": [{"commonness": 30, "minDepth": 15, "maxDepth": 50, "piling": {"chance": 10, "pileSize": "2d1"}}]},

{"index": 315, "subtype": "Charisma", 
"templates": "potion", 
"allocations": [{"commonness": 30, "minDepth": 20, "maxDepth": -1, "piling": {"chance": 10, "pileSize": "2d1"}}]},

{"index": 358, "subtype": "Confusion", 
"templates": "potion", 
"allocations": [{"commonness": 10, "minDepth": 0, "maxDepth": 10, "piling": {"chance": 70, "pileSize": "2d3"}}]},

{"index": 314, "subtype": "Constitution", 
"templates": "potion", 
"allocations": [{"commonness": 30, "minDepth": 36, "maxDepth": -1, "piling": {"chance": 10, "pileSize": "2d1"}}]},

{"index": 335, "subtype": "Contemplation", 
"templates": "potion", 
"allocations": [{"commonness": 30, "minDepth": 15, "maxDepth": 50, "piling": {"chance": 10, "pileSize": "2d1"}}]},

{"index": 320, "subtype": "Cure Critical Wounds", 
"templates": "potion", 
"allocations": [{"commonness": 80, "minDepth": 12, "maxDepth": -1, "piling": {"chance": 70, "pileSize": "2d3"}}]},

{"index": 318, "subtype": "Cure Light Wounds", 
"templates": "potion", 
"procs": ["print message"], 
"allocations": [{"commonness": 80, "minDepth": 1, "maxDepth": 15, "piling": {"chance": 90, "pileSize": "2d3"}}]},

{"index": 319, "subtype": "Cure Serious Wounds", 
"templates": "potion", 
"allocations": [{"commonness": 80, "minDepth": 5, "maxDepth": 40, "piling": {"chance": 80, "pileSize": "2d3"}}]},

{"index": 313, "subtype": "Dexterity", 
"templates": "potion", 
"allocations": [{"commonness": 30, "minDepth": 36, "maxDepth": -1, "piling": {"chance": 10, "pileSize": "2d1"}}]},

{"index": 363, "subtype": "Dragon Breath", 
"templates": "potion", 
"allocations": [{"commonness": 20, "minDepth": 40, "maxDepth": -1, "piling": {"chance": 70, "pileSize": "1d3"}}]},

{"index": 341, "subtype": "Enlightenment", 
"templates": "potion", 
"allocations": [{"commonness": 40, "minDepth": 25, "maxDepth": -1, "piling": {"chance": 25, "pileSize": "2d1"}}]},

{"index": 317, "subtype": "Experience", 
"templates": "potion", 
"flags": ["GOOD"], 
"allocations": [{"commonness": 20, "minDepth": 65, "maxDepth": -1}]},

{"index": 321, "subtype": "Healing", 
"templates": "potion", 
"allocations": [{"commonness": 64, "minDepth": 30, "maxDepth": -1, "piling": {"chance": 25, "pileSize": "2d1"}}]},

{"index": 344, "subtype": "Heroism", 
"templates": "potion", 
"allocations": [{"commonness": 40, "minDepth": 1, "maxDepth": -1, "piling": {"chance": 25, "pileSize": "2d1"}}]},

{"index": 351, "subtype": "Infravision", 
"templates": "potion", 
"allocations": [{"commonness": 40, "minDepth": 3, "maxDepth": 40, "piling": {"chance": 25, "pileSize": "2d1"}}]},

{"index": 334, "subtype": "Intellect", 
"templates": "potion", 
"allocations": [{"commonness": 30, "minDepth": 15, "maxDepth": 50, "piling": {"chance": 10, "pileSize": "2d1"}}]},

{"index": 311, "subtype": "Intelligence", 
"templates": "potion", 
"allocations": [{"commonness": 30, "minDepth": 36, "maxDepth": -1, "piling": {"chance": 10, "pileSize": "2d1"}}]},

{"index": 323, "subtype": "Life", 
"templates": "potion", 
"flags": ["GOOD"], 
"allocations": [{"commonness": 10, "minDepth": 60, "maxDepth": -1}]},

{"index": 361, "subtype": "Lose Memories", 
"templates": "potion", 
"allocations": [{"commonness": 10, "minDepth": 10, "maxDepth": 15, "piling": {"chance": 25, "pileSize": "2d1"}}]},

{"index": 324, "subtype": "Neutralize Poison", 
"templates": "potion", 
"allocations": [{"commonness": 40, "minDepth": 1, "maxDepth": 35, "piling": {"chance": 25, "pileSize": "2d1"}}]},

{"index": 336, "subtype": "Nimbleness", 
"templates": "potion", 
"allocations": [{"commonness": 30, "minDepth": 15, "maxDepth": 50, "piling": {"chance": 10, "pileSize": "2d1"}}]},

{"index": 359, "subtype": "Poison", 
"templates": "potion", 
"allocations": [{"commonness": 10, "minDepth": 0, "maxDepth": 10, "piling": {"chance": 70, "pileSize": "2d3"}}]},

{"index": 348, "subtype": "Resist Cold", 
"templates": "potion", 
"allocations": [{"commonness": 40, "minDepth": 1, "maxDepth": -1, "piling": {"chance": 25, "pileSize": "2d1"}}]},

{"index": 347, "subtype": "Resist Heat", 
"templates": "potion", 
"allocations": [{"commonness": 40, "minDepth": 1, "maxDepth": -1, "piling": {"chance": 25, "pileSize": "2d1"}}]},

{"index": 349, "subtype": "Resist Poison", 
"templates": "potion", 
"allocations": [{"commonness": 40, "minDepth": 8, "maxDepth": -1, "piling": {"chance": 25, "pileSize": "2d1"}}]},

{"index": 332, "subtype": "Restore Life Levels", 
"templates": "potion", 
"allocations": [{"commonness": 40, "minDepth": 30, "maxDepth": -1, "piling": {"chance": 25, "pileSize": "2d1"}}]},

{"index": 325, "subtype": "Restore Mana", 
"templates": "potion", 
"allocations": [{"commonness": 64, "minDepth": 15, "maxDepth": -1, "piling": {"chance": 25, "pileSize": "2d1"}}]},

{"index": 362, "subtype": "Salt Water", 
"templates": "potion", 
"allocations": [{"commonness": 10, "minDepth": 3, "maxDepth": 15, "piling": {"chance": 100, "pileSize": "1d2"}}]},

{"index": 356, "subtype": "Sleep", 
"templates": "potion", 
"allocations": [{"commonness": 10, "minDepth": 0, "maxDepth": 10, "piling": {"chance": 70, "pileSize": "2d3"}}]},

{"index": 355, "subtype": "Slime Mold Juice", 
"templates": "potion", 
"allocations": [{"commonness": 10, "minDepth": 1, "maxDepth": 10, "piling": {"chance": 70, "pileSize": "2d3"}}]},

{"index": 360, "subtype": "Slowness", 
"templates": "potion", 
"allocations": [{"commonness": 10, "minDepth": 0, "maxDepth": 10, "piling": {"chance": 70, "pileSize": "2d3"}}]},

{"index": 343, "subtype": "Speed", 
"templates": "potion", 
"procs": [{"name": "temporary stat mod", "statName": "speed", "modAmount": 1, "duration": "10+d10", "triggerCondition": "item use"}], 
"allocations": [{"commonness": 40, "minDepth": 1, "maxDepth": -1, "piling": {"chance": 25, "pileSize": "2d1"}}]},

{"index": 310, "subtype": "Strength", 
"templates": "potion", 
"allocations": [{"commonness": 30, "minDepth": 36, "maxDepth": -1, "piling": {"chance": 10, "pileSize": "2d1"}}]},

{"index": 337, "subtype": "Toughness", 
"templates": "potion", 
"allocations": [{"commonness": 30, "minDepth": 15, "maxDepth": 50, "piling": {"chance": 10, "pileSize": "2d1"}}]},

{"index": 350, "subtype": "True Seeing", 
"templates": "potion", 
"allocations": [{"commonness": 40, "minDepth": 3, "maxDepth": 40, "piling": {"chance": 25, "pileSize": "2d1"}}]},

{"index": 312, "subtype": "Wisdom", 
"templates": "potion", 
"allocations": [{"commonness": 30, "minDepth": 36, "maxDepth": -1, "piling": {"chance": 10, "pileSize": "2d1"}}]},

{"index": 473, "type": "prayer book", "subtype": "& Book of High Prayer", 
"display": {"ascii": {"color": [0, 128, 64], "symbol": "?"}}, 
"flags": ["INSTA_ART"]},

{"index": 474, "type": "prayer book", "subtype": "& Book of High Prayer", 
"display": {"ascii": {"color": [0, 128, 64], "symbol": "?"}}, 
"flags": ["INSTA_ART"]},

{"index": 475, "type": "prayer book", "subtype": "& Book of High Prayer", 
"display": {"ascii": {"color": [0, 128, 64], "symbol": "?"}}, 
"flags": ["INSTA_ART"]},

{"index": 476, "type": "prayer book", "subtype": "& Book of High Prayer", 
"display": {"ascii": {"color": [0, 128, 64], "symbol": "?"}}, 
"flags": ["INSTA_ART"]},

{"index": 477, "type": "prayer book", "subtype": "& Book of High Prayer", 
"display": {"ascii": {"color": [0, 128, 64], "symbol": "?"}}, 
"flags": ["INSTA_ART"]},

{"index": 464, "subtype": "[Beginners Handbook]", 
"templates": "prayer book", 
"allocations": [{"commonness": 50, "minDepth": 5, "maxDepth": -1}]},

{"index": 466, "subtype": "[Chants and Blessings]", 
"templates": "prayer book", 
"allocations": [{"commonness": 50, "minDepth": 20, "maxDepth": -1}]},

{"index": 467, "subtype": "[Exorcism and Dispelling]", 
"templates": "prayer book", 
"allocations": [{"commonness": 50, "minDepth": 30, "maxDepth": -1}]},

{"index": 465, "subtype": "[Words of Wisdom]", 
"templates": "prayer book", 
"allocations": [{"commonness": 50, "minDepth": 10, "maxDepth": -1}]},

{"index": 208, "subtype": "Acid", 
"templates": "ring", 
"stats": {"armorMod": "5+d5M10"}, 
"mods": [{"bonus": "50+d50M50", "flags": ["BRAND_ACID"]}], 
"flags": ["RES_ACID", "IGNORE_ACID"], 
"allocations": [{"commonness": 20, "minDepth": 50, "maxDepth": -1}]},

{"index": 198, "subtype": "Bodykeeping", 
"templates": "ring", 
"flags": ["SUST_STR", "SUST_DEX", "SUST_CON", "EASY_KNOW"], 
"allocations": [{"commonness": 20, "minDepth": 30, "maxDepth": -1}]},

{"index": 193, "subtype": "Constitution", 
"templates": "ring", 
"mods": [{"bonus": "1+M5", "flags": ["CON"]}], 
"flags": ["SUST_CON", ""], 
"allocations": [{"commonness": 50, "minDepth": 30, "maxDepth": -1}]},

{"index": 227, "subtype": "Delving", 
"templates": "ring", 
"mods": [{"bonus": "2+d3", "flags": ["TUNNEL"]}], 
"allocations": [{"commonness": 20, "minDepth": 10, "maxDepth": 50}]},

{"index": 192, "subtype": "Dexterity", 
"templates": "ring", 
"mods": [{"bonus": "1+M5", "flags": ["DEX"]}], 
"flags": ["SUST_DEX", ""], 
"allocations": [{"commonness": 50, "minDepth": 30, "maxDepth": -1}]},

{"index": 219, "subtype": "Escaping", 
"templates": "ring", 
"mods": [{"bonus": "4", "flags": ["SPEED"]}], 
"flags": ["AFRAID", "EASY_KNOW"], 
"allocations": [{"commonness": 50, "minDepth": 15, "maxDepth": 80}]},

{"index": 224, "subtype": "Feather Falling", 
"templates": "ring", 
"flags": ["FEATHER", "EASY_KNOW"], 
"allocations": [{"commonness": 20, "minDepth": 5, "maxDepth": 50}]},

{"index": 213, "subtype": "Finesse", 
"templates": "ring", 
"stats": {"meleeFinesse": "20+d20M80"}, 
"allocations": [{"commonness": 30, "minDepth": 20, "maxDepth": -1}], 
"description": "It boosts your to-hit value."},

{"index": 207, "subtype": "Flames", 
"templates": "ring", 
"stats": {"armorMod": "5+d5M10"}, 
"mods": [{"bonus": "50+d50M50", "flags": ["BRAND_FIRE"]}], 
"flags": ["RES_FIRE", "IGNORE_FIRE"], 
"allocations": [{"commonness": 20, "minDepth": 50, "maxDepth": -1}]},

{"index": 225, "subtype": "Free Action", 
"templates": "ring", 
"flags": ["FREE_ACT", "EASY_KNOW"], 
"allocations": [{"commonness": 50, "minDepth": 20, "maxDepth": -1}]},

{"index": 209, "subtype": "Ice", 
"templates": "ring", 
"stats": {"armorMod": "5+d5M10"}, 
"mods": [{"bonus": "50+d50M50", "flags": ["BRAND_COLD"]}], 
"flags": ["RES_COLD", "IGNORE_COLD"], 
"allocations": [{"commonness": 20, "minDepth": 50, "maxDepth": -1}]},

{"index": 191, "subtype": "Intelligence", 
"templates": "ring", 
"mods": [{"bonus": "1+M5", "flags": ["INT"]}], 
"flags": ["SUST_INT", ""], 
"allocations": [{"commonness": 50, "minDepth": 30, "maxDepth": -1}]},

{"index": 205, "subtype": "Light", 
"templates": "ring", 
"mods": [{"bonus": "1+M5", "flags": ["SEARCH"]}, {"bonus": "1", "flags": ["LIGHT"]}], 
"flags": ["RES_LIGHT"], 
"allocations": [{"commonness": 20, "minDepth": 25, "maxDepth": -1}]},

{"index": 210, "subtype": "Lightning", 
"templates": "ring", 
"stats": {"armorMod": "5+d5M10"}, 
"mods": [{"bonus": "50+d50M50", "flags": ["BRAND_ELEC"]}], 
"flags": ["RES_ELEC", "IGNORE_ELEC"], 
"allocations": [{"commonness": 20, "minDepth": 50, "maxDepth": -1}]},

{"index": 218, "subtype": "Open Wounds", 
"templates": "ring", 
"flags": ["IMPAIR_HP", "EASY_KNOW"], 
"allocations": [{"commonness": 20, "minDepth": 10, "maxDepth": 50}]},

{"index": 215, "subtype": "Protection", 
"templates": "ring", 
"stats": {"armorMod": "5+d5M10"}, 
"allocations": [{"commonness": 50, "minDepth": 10, "maxDepth": 40}], 
"description": "It increases your armor class."},

{"index": 212, "subtype": "Prowess", 
"templates": "ring", 
"stats": {"meleeProwess": "20+d20M80"},
"allocations": [{"commonness": 30, "minDepth": 20, "maxDepth": -1}], 
"description": "It boosts your to-dam value."},

{"index": 217, "subtype": "Reckless Attacks", 
"templates": "ring", 
"stats": {"meleeFinesse": "10+10d2M20", "armorMod": "-6+4d2", "meleeProwess": "10+10d2M20"}, 
"allocations": [{"commonness": 30, "minDepth": 10, "maxDepth": 50}]},

{"index": 203, "subtype": "Resist Cold", 
"templates": "ring", 
"flags": ["RES_COLD", "IGNORE_COLD", "EASY_KNOW"], 
"allocations": [{"commonness": 50, "minDepth": 10, "maxDepth": 50}]},

{"index": 202, "subtype": "Resist Fire", 
"templates": "ring", 
"flags": ["RES_FIRE", "IGNORE_FIRE", "EASY_KNOW"], 
"allocations": [{"commonness": 50, "minDepth": 10, "maxDepth": 50}]},

{"index": 201, "subtype": "Resist Poison", 
"templates": "ring", 
"flags": ["RES_POIS", "EASY_KNOW"], 
"allocations": [{"commonness": 50, "minDepth": 40, "maxDepth": -1}]},

{"index": 195, "subtype": "Searching", 
"templates": "ring", 
"mods": [{"bonus": "1+M5", "flags": ["SEARCH"]}], 
"allocations": [{"commonness": 20, "minDepth": 5, "maxDepth": 90}]},

{"index": 226, "subtype": "See Invisible", 
"templates": "ring", 
"flags": ["SEE_INVIS", "EASY_KNOW"], 
"allocations": [{"commonness": 50, "minDepth": 30, "maxDepth": -1}]},

{"index": 214, "subtype": "Slaying", 
"templates": "ring", 
"stats": {"meleeProwess": "10+d10M40", "meleeFinesse": "10+d10M40"}, 
"allocations": [{"commonness": 20, "minDepth": 40, "maxDepth": -1}], 
"description": "It boosts your to-hit and to-dam values."},

{"index": 223, "subtype": "Slow Digestion", 
"templates": "ring", 
"flags": ["SLOW_DIGEST", "EASY_KNOW"], 
"allocations": [{"commonness": 30, "minDepth": 5, "maxDepth": 50}]},

{"index": 199, "subtype": "Soulkeeping", 
"templates": "ring", 
"flags": ["SUST_STR", "SUST_INT", "SUST_WIS", "EASY_KNOW"], 
"allocations": [{"commonness": 20, "minDepth": 30, "maxDepth": -1}]},

{"index": 194, "subtype": "Speed", 
"templates": "ring", 
"mods": [{"bonus": "4+M6", "flags": ["SPEED"]}], 
"flags": ["GOOD"], 
"allocations": [{"commonness": 40, "minDepth": 75, "maxDepth": -1}]},

{"index": 190, "subtype": "Strength", 
"templates": "ring", 
"mods": [{"bonus": "1+M5", "flags": ["STR"]}], 
"flags": ["SUST_STR", ""], 
"allocations": [{"commonness": 50, "minDepth": 30, "maxDepth": -1}]},

{"index": 200, "subtype": "Sustain Charisma", 
"templates": "ring", 
"flags": ["SUST_CHR", "EASY_KNOW"]},

{"index": 216, "subtype": "Teleportation", 
"templates": "ring", 
"mods": [{"bonus": "2", "flags": ["SPEED"]}], 
"flags": ["TELEPORT", "EASY_KNOW"], 
"allocations": [{"commonness": 20, "minDepth": 5, "maxDepth": 50}]},

{"index": 221, "subtype": "the Dog", 
"templates": "ring", 
"mods": [{"bonus": "-2", "flags": ["STEALTH"]}], 
"flags": ["RES_FEAR"], 
"allocations": [{"commonness": 50, "minDepth": 5, "maxDepth": 50}]},

{"index": 220, "subtype": "the Mouse", 
"templates": "ring", 
"stats": {"meleeProwess": "-30d3"}, 
"mods": [{"bonus": "d4", "flags": ["DEX"]}, {"bonus": "d4", "flags": ["STEALTH"]}], 
"allocations": [{"commonness": 50, "minDepth": 5, "maxDepth": 50}]},

{"index": 443, "subtype": "Acid Balls", 
"templates": "rod", 
"allocations": [{"commonness": 20, "minDepth": 70, "maxDepth": -1}]},

{"index": 439, "subtype": "Acid Bolts", 
"templates": "rod", 
"allocations": [{"commonness": 20, "minDepth": 40, "maxDepth": 80}]},

{"index": 441, "subtype": "Cold Balls", 
"templates": "rod", 
"allocations": [{"commonness": 20, "minDepth": 60, "maxDepth": -1}]},

{"index": 446, "subtype": "Curing", 
"templates": "rod", 
"allocations": [{"commonness": 20, "minDepth": 10, "maxDepth": 80}]},

{"index": 433, "subtype": "Detection", 
"templates": "rod", 
"flags": ["IGNORE_ELEC"], 
"allocations": [{"commonness": 30, "minDepth": 50, "maxDepth": -1}]},

{"index": 452, "subtype": "Disarming", 
"templates": "rod", 
"allocations": [{"commonness": 10, "minDepth": 10, "maxDepth": -1}]},

{"index": 431, "subtype": "Door/Stair Location", 
"templates": "rod", 
"allocations": [{"commonness": 30, "minDepth": 8, "maxDepth": 75}]},

{"index": 450, "subtype": "Drain Life", 
"templates": "rod", 
"allocations": [{"commonness": 20, "minDepth": 75, "maxDepth": -1}]},

{"index": 440, "subtype": "Fire Balls", 
"templates": "rod", 
"allocations": [{"commonness": 20, "minDepth": 75, "maxDepth": -1}]},

{"index": 436, "subtype": "Fire Bolts", 
"templates": "rod", 
"allocations": [{"commonness": 20, "minDepth": 30, "maxDepth": 80}]},

{"index": 437, "subtype": "Frost Bolts", 
"templates": "rod", 
"allocations": [{"commonness": 20, "minDepth": 25, "maxDepth": 80}]},

{"index": 447, "subtype": "Healing", 
"templates": "rod", 
"flags": ["IGNORE_ELEC"], 
"allocations": [{"commonness": 20, "minDepth": 80, "maxDepth": -1}]},

{"index": 456, "subtype": "Identify", 
"templates": "rod", 
"flags": ["IGNORE_ELEC"], 
"allocations": [{"commonness": 15, "minDepth": 50, "maxDepth": -1}]},

{"index": 454, "subtype": "Illumination", 
"templates": "rod", 
"allocations": [{"commonness": 20, "minDepth": 20, "maxDepth": -1}]},

{"index": 453, "subtype": "Light", 
"templates": "rod", 
"allocations": [{"commonness": 20, "minDepth": 8, "maxDepth": -1}]},

{"index": 442, "subtype": "Lightning Balls", 
"templates": "rod", 
"flags": ["IGNORE_ELEC"], 
"allocations": [{"commonness": 20, "minDepth": 55, "maxDepth": -1}]},

{"index": 438, "subtype": "Lightning Bolts", 
"templates": "rod", 
"allocations": [{"commonness": 20, "minDepth": 20, "maxDepth": 80}]},

{"index": 434, "subtype": "Magic Mapping", 
"templates": "rod", 
"allocations": [{"commonness": 10, "minDepth": 65, "maxDepth": -1}]},

{"index": 449, "subtype": "Polymorph", 
"templates": "rod", 
"allocations": [{"commonness": 20, "minDepth": 35, "maxDepth": 80}]},

{"index": 435, "subtype": "Probing", 
"templates": "rod", 
"allocations": [{"commonness": 20, "minDepth": 35, "maxDepth": -1}]},

{"index": 455, "subtype": "Recall", 
"templates": "rod", 
"flags": ["IGNORE_ELEC"], 
"allocations": [{"commonness": 10, "minDepth": 30, "maxDepth": -1}]},

{"index": 448, "subtype": "Restoration", 
"templates": "rod", 
"flags": ["IGNORE_ELEC"], 
"allocations": [{"commonness": 10, "minDepth": 80, "maxDepth": -1}]},

{"index": 445, "subtype": "Sleep Monster", 
"templates": "rod", 
"allocations": [{"commonness": 20, "minDepth": 30, "maxDepth": -1}]},

{"index": 444, "subtype": "Slow Monster", 
"templates": "rod", 
"allocations": [{"commonness": 20, "minDepth": 30, "maxDepth": -1}]},

{"index": 457, "subtype": "Speed", 
"templates": "rod", 
"flags": ["IGNORE_ELEC", "GOOD"], 
"allocations": [{"commonness": 5, "minDepth": 80, "maxDepth": -1}]},

{"index": 451, "subtype": "Teleport Other", 
"templates": "rod", 
"flags": ["GOOD"], 
"allocations": [{"commonness": 10, "minDepth": 45, "maxDepth": -1}]},

{"index": 432, "subtype": "Trap Location", 
"templates": "rod"},

{"index": 430, "subtype": "Treasure Location", 
"templates": "rod"},

{"index": 281, "subtype": "*Acquirement*", 
"templates": "scroll", 
"flags": ["GOOD"], 
"allocations": [{"commonness": 3, "minDepth": 60, "maxDepth": -1}]},

{"index": 300, "subtype": "*Destruction*", 
"templates": "scroll", 
"flags": ["GOOD"], 
"allocations": [{"commonness": 15, "minDepth": 40, "maxDepth": -1}]},

{"index": 274, "subtype": "*Enchant Armour*", 
"templates": "scroll", 
"allocations": [{"commonness": 40, "minDepth": 50, "maxDepth": -1, "piling": {"chance": 25, "pileSize": "2d1"}}]},

{"index": 273, "subtype": "*Enchant Weapon*", 
"templates": "scroll", 
"allocations": [{"commonness": 40, "minDepth": 50, "maxDepth": -1, "piling": {"chance": 25, "pileSize": "2d1"}}]},

{"index": 276, "subtype": "*Remove Curse*", 
"templates": "scroll", 
"allocations": [{"commonness": 16, "minDepth": 50, "maxDepth": -1, "piling": {"chance": 25, "pileSize": "2d1"}}]},

{"index": 280, "subtype": "Acquirement", 
"templates": "scroll", 
"flags": ["GOOD"], 
"allocations": [{"commonness": 5, "minDepth": 20, "maxDepth": -1}]},

{"index": 301, "subtype": "Aggravate Monster", 
"templates": "scroll", 
"allocations": [{"commonness": 10, "minDepth": 5, "maxDepth": 70, "piling": {"chance": 70, "pileSize": "1d3"}}]},

{"index": 283, "subtype": "Banishment", 
"templates": "scroll", 
"flags": ["GOOD"], 
"allocations": [{"commonness": 10, "minDepth": 40, "maxDepth": -1}]},

{"index": 294, "subtype": "Blessing", 
"templates": "scroll", 
"allocations": [{"commonness": 50, "minDepth": 1, "maxDepth": 50, "piling": {"chance": 70, "pileSize": "1d3"}}]},

{"index": 303, "subtype": "Curse Armour", 
"templates": "scroll", 
"allocations": [{"commonness": 10, "minDepth": 50, "maxDepth": -1, "piling": {"chance": 70, "pileSize": "1d3"}}]},

{"index": 302, "subtype": "Curse Weapon", 
"templates": "scroll", 
"allocations": [{"commonness": 10, "minDepth": 50, "maxDepth": -1, "piling": {"chance": 70, "pileSize": "1d3"}}]},

{"index": 304, "subtype": "Darkness", 
"templates": "scroll", 
"allocations": [{"commonness": 10, "minDepth": 1, "maxDepth": 70, "piling": {"chance": 70, "pileSize": "1d3"}}]},

{"index": 293, "subtype": "Deep Descent", 
"templates": "scroll", 
"allocations": [{"commonness": 20, "minDepth": 1, "maxDepth": -1, "piling": {"chance": 20, "pileSize": "2d1"}}]},

{"index": 267, "subtype": "Detect Invisible", 
"templates": "scroll", 
"allocations": [{"commonness": 50, "minDepth": 1, "maxDepth": 70, "piling": {"chance": 70, "pileSize": "1d3"}}]},

{"index": 282, "subtype": "Dispel Undead", 
"templates": "scroll", 
"allocations": [{"commonness": 40, "minDepth": 40, "maxDepth": -1, "piling": {"chance": 25, "pileSize": "2d1"}}]},

{"index": 266, "subtype": "Door/Stair Location", 
"templates": "scroll", 
"allocations": [{"commonness": 50, "minDepth": 5, "maxDepth": 70, "piling": {"chance": 70, "pileSize": "1d3"}}]},

{"index": 272, "subtype": "Enchant Armour", 
"templates": "scroll", 
"allocations": [{"commonness": 40, "minDepth": 15, "maxDepth": 70, "piling": {"chance": 25, "pileSize": "2d1"}}]},

{"index": 270, "subtype": "Enchant Weapon (Finesse)", 
"templates": "scroll", 
"allocations": [{"commonness": 40, "minDepth": 15, "maxDepth": 70, "piling": {"chance": 25, "pileSize": "2d1"}}]},

{"index": 271, "subtype": "Enchant Weapon (Prowess)", 
"templates": "scroll", 
"allocations": [{"commonness": 40, "minDepth": 15, "maxDepth": 70, "piling": {"chance": 25, "pileSize": "2d1"}}]},

{"index": 295, "subtype": "Holy Chant", 
"templates": "scroll", 
"allocations": [{"commonness": 40, "minDepth": 10, "maxDepth": 70, "piling": {"chance": 25, "pileSize": "2d1"}}]},

{"index": 296, "subtype": "Holy Prayer", 
"templates": "scroll", 
"allocations": [{"commonness": 40, "minDepth": 50, "maxDepth": -1, "piling": {"chance": 25, "pileSize": "2d1"}}]},

{"index": 286, "subtype": "Identify", 
"templates": "scroll", 
"allocations": [{"commonness": 60, "minDepth": 5, "maxDepth": -1, "piling": {"chance": 100, "pileSize": "2d3"}}]},

{"index": 289, "subtype": "Light", 
"templates": "scroll", 
"allocations": [{"commonness": 50, "minDepth": 0, "maxDepth": 60, "piling": {"chance": 35, "pileSize": "2d3"}}]},

{"index": 263, "subtype": "Magic Mapping", 
"templates": "scroll", 
"allocations": [{"commonness": 50, "minDepth": 5, "maxDepth": -1, "piling": {"chance": 70, "pileSize": "1d3"}}]},

{"index": 284, "subtype": "Mass Banishment", 
"templates": "scroll", 
"flags": ["GOOD"], 
"allocations": [{"commonness": 10, "minDepth": 50, "maxDepth": -1}]},

{"index": 298, "subtype": "Monster Confusion", 
"templates": "scroll", 
"allocations": [{"commonness": 16, "minDepth": 5, "maxDepth": 60, "piling": {"chance": 25, "pileSize": "2d1"}}]},

{"index": 260, "subtype": "Phase Door", 
"templates": "scroll", 
"allocations": [{"commonness": 50, "minDepth": 1, "maxDepth": -1, "piling": {"chance": 100, "pileSize": "1d3"}}]},

{"index": 297, "subtype": "Protection from Evil", 
"templates": "scroll", 
"allocations": [{"commonness": 40, "minDepth": 30, "maxDepth": -1, "piling": {"chance": 25, "pileSize": "2d1"}}]},

{"index": 291, "subtype": "Recharging", 
"templates": "scroll", 
"allocations": [{"commonness": 40, "minDepth": 40, "maxDepth": -1, "piling": {"chance": 12, "pileSize": "2d3"}}]},

{"index": 275, "subtype": "Remove Curse", 
"templates": "scroll", 
"allocations": [{"commonness": 16, "minDepth": 10, "maxDepth": -1, "piling": {"chance": 25, "pileSize": "2d1"}}]},

{"index": 277, "subtype": "Restore Item", 
"templates": "scroll"},

{"index": 299, "subtype": "Rune of Protection", 
"templates": "scroll", 
"flags": ["GOOD"], 
"allocations": [{"commonness": 10, "minDepth": 70, "maxDepth": -1}]},

{"index": 285, "subtype": "Satisfy Hunger", 
"templates": "scroll", 
"allocations": [{"commonness": 60, "minDepth": 5, "maxDepth": -1, "piling": {"chance": 100, "pileSize": "2d3"}}]},

{"index": 278, "subtype": "Summon Monster", 
"templates": "scroll", 
"allocations": [{"commonness": 10, "minDepth": 1, "maxDepth": -1, "piling": {"chance": 70, "pileSize": "1d3"}}]},

{"index": 279, "subtype": "Summon Undead", 
"templates": "scroll", 
"allocations": [{"commonness": 10, "minDepth": 15, "maxDepth": -1, "piling": {"chance": 70, "pileSize": "1d3"}}]},

{"index": 262, "subtype": "Teleport Level", 
"templates": "scroll", 
"allocations": [{"commonness": 16, "minDepth": 20, "maxDepth": -1, "piling": {"chance": 10, "pileSize": "2d1"}}]},

{"index": 261, "subtype": "Teleportation", 
"templates": "scroll", 
"allocations": [{"commonness": 40, "minDepth": 10, "maxDepth": -1, "piling": {"chance": 25, "pileSize": "2d1"}}]},

{"index": 305, "subtype": "Trap Creation", 
"templates": "scroll", 
"allocations": [{"commonness": 10, "minDepth": 10, "maxDepth": 70, "piling": {"chance": 70, "pileSize": "1d3"}}]},

{"index": 265, "subtype": "Trap Detection", 
"templates": "scroll", 
"allocations": [{"commonness": 50, "minDepth": 0, "maxDepth": -1, "piling": {"chance": 70, "pileSize": "1d3"}}]},

{"index": 292, "subtype": "Trap/Door Destruction", 
"templates": "scroll", 
"allocations": [{"commonness": 40, "minDepth": 10, "maxDepth": 60, "piling": {"chance": 25, "pileSize": "2d3"}}]},

{"index": 264, "subtype": "Treasure Detection", 
"templates": "scroll", 
"allocations": [{"commonness": 50, "minDepth": 0, "maxDepth": 70, "piling": {"chance": 40, "pileSize": "1d5"}}]},

{"index": 290, "subtype": "Word of Recall", 
"templates": "scroll", 
"allocations": [{"commonness": 50, "minDepth": 5, "maxDepth": -1, "piling": {"chance": 35, "pileSize": "2d3"}}]},

{"index": 180, "subtype": "& Buckler~", 
"templates": "shield", 
"display": {"ascii": {"color": [192, 128, 64]}}, 
"stats": {"baseArmor": 1}, 
"allocations": [{"commonness": 20, "minDepth": 1, "maxDepth": -1}], 
"description": "A small round shield designed to be useful in deflecting enemy swords."},

{"index": 185, "subtype": "& Bulwark~", 
"templates": "shield", 
"display": {"ascii": {"color": [0, 255, 255]}}, 
"stats": {"armorMod": "10", "baseArmor": 16}, 
"allocations": [{"commonness": 10, "minDepth": 70, "maxDepth": -1}], 
"description": "A massive barrier shield. You can fit your entire body behind it."},

{"index": 183, "subtype": "& Kite Shield~", 
"templates": "shield", 
"display": {"ascii": {"color": [192, 128, 64]}}, 
"stats": {"baseArmor": 8}, 
"allocations": [{"commonness": 20, "minDepth": 20, "maxDepth": -1}], 
"description": "A thick triangular shield designed to protect from enemy attacks."},

{"index": 182, "subtype": "& Large Shield~", 
"templates": "shield", 
"display": {"ascii": {"color": [128, 128, 128]}}, 
"stats": {"baseArmor": 5}, 
"allocations": [{"commonness": 20, "minDepth": 15, "maxDepth": -1}], 
"description": "A large round shield designed to protect from enemy attacks."},

{"index": 181, "subtype": "& Small Shield~", 
"templates": "shield", 
"display": {"ascii": {"color": [192, 128, 64]}}, 
"stats": {"baseArmor": 2}, 
"allocations": [{"commonness": 20, "minDepth": 5, "maxDepth": -1}], 
"description": "A small round shield work on the forearm."},

{"index": 184, "subtype": "& Tower Shield~", 
"templates": "shield", 
"display": {"ascii": {"color": [128, 128, 128]}}, 
"stats": {"baseArmor": 12}, 
"allocations": [{"commonness": 20, "minDepth": 30, "maxDepth": -1}], 
"description": "A huge rectangular metal shield."},

{"index": 494, "subtype": "& Broken Bone~", 
"templates": "skeleton"},

{"index": 493, "subtype": "& Broken Skull~", 
"templates": "skeleton"},

{"index": 495, "subtype": "& Canine Skeleton~", 
"templates": "skeleton"},

{"index": 498, "subtype": "& Dwarf Skeleton~", 
"templates": "skeleton"},

{"index": 499, "subtype": "& Elf Skeleton~", 
"templates": "skeleton"},

{"index": 497, "subtype": "& Human Skeleton~", 
"templates": "skeleton"},

{"index": 496, "subtype": "& Rodent Skeleton~", 
"templates": "skeleton"},

{"index": 1, "type": "spike", "subtype": "& Iron Spike~", 
"display": {"ascii": {"color": [192, 192, 192], "symbol": "~"}}, 
"flags": ["EASY_KNOW"], 
"allocations": [{"commonness": 20, "minDepth": 1, "maxDepth": 40, "piling": {"chance": 100, "pileSize": "6d7"}}], 
"description": "These can be placed in doors to make them harder to open.  Multiple spikes may be used on a single door.  Each of the first 7 spikes will increase the door's resistance to bashing.  Placing more than 7 spikes in one door will not have any further effect."},

{"index": 404, "subtype": "*Destruction*", 
"templates": "staff", 
"allocations": [{"commonness": 20, "minDepth": 50, "maxDepth": -1}]},

{"index": 415, "subtype": "Banishment", 
"templates": "staff", 
"flags": ["GOOD"], 
"allocations": [{"commonness": 10, "minDepth": 80, "maxDepth": -1}]},

{"index": 405, "subtype": "Confuse Monsters", 
"templates": "staff", 
"allocations": [{"commonness": 20, "minDepth": 10, "maxDepth": -1}]},

{"index": 412, "subtype": "Cure Light Wounds", 
"templates": "staff", 
"allocations": [{"commonness": 30, "minDepth": 5, "maxDepth": -1}]},

{"index": 411, "subtype": "Curing", 
"templates": "staff", 
"allocations": [{"commonness": 30, "minDepth": 10, "maxDepth": -1}]},

{"index": 402, "subtype": "Darkness", 
"templates": "staff", 
"allocations": [{"commonness": 10, "minDepth": 5, "maxDepth": 40}]},

{"index": 409, "subtype": "Detect Evil", 
"templates": "staff", 
"allocations": [{"commonness": 30, "minDepth": 20, "maxDepth": -1}]},

{"index": 408, "subtype": "Detect Invisible", 
"templates": "staff", 
"allocations": [{"commonness": 30, "minDepth": 5, "maxDepth": -1}]},

{"index": 414, "subtype": "Dispel Evil", 
"templates": "staff", 
"allocations": [{"commonness": 50, "minDepth": 50, "maxDepth": -1}]},

{"index": 403, "subtype": "Earthquakes", 
"templates": "staff", 
"allocations": [{"commonness": 20, "minDepth": 40, "maxDepth": -1}]},

{"index": 401, "subtype": "Haste Monsters", 
"templates": "staff", 
"allocations": [{"commonness": 10, "minDepth": 10, "maxDepth": 40}]},

{"index": 413, "subtype": "Healing", 
"templates": "staff", 
"allocations": [{"commonness": 20, "minDepth": 70, "maxDepth": -1}]},

{"index": 417, "subtype": "Holiness", 
"templates": "staff", 
"allocations": [{"commonness": 20, "minDepth": 70, "maxDepth": -1}]},

{"index": 424, "subtype": "Identify", 
"templates": "staff", 
"allocations": [{"commonness": 50, "minDepth": 10, "maxDepth": -1}]},

{"index": 418, "subtype": "Light", 
"templates": "staff", 
"allocations": [{"commonness": 20, "minDepth": 5, "maxDepth": 80}]},

{"index": 410, "subtype": "Mapping", 
"templates": "staff", 
"allocations": [{"commonness": 30, "minDepth": 20, "maxDepth": -1}]},

{"index": 416, "subtype": "Power", 
"templates": "staff", 
"allocations": [{"commonness": 20, "minDepth": 70, "maxDepth": -1}]},

{"index": 422, "subtype": "Remove Curse", 
"templates": "staff", 
"allocations": [{"commonness": 20, "minDepth": 40, "maxDepth": -1}]},

{"index": 407, "subtype": "Sleep Monsters", 
"templates": "staff", 
"allocations": [{"commonness": 20, "minDepth": 10, "maxDepth": -1}]},

{"index": 406, "subtype": "Slow Monsters", 
"templates": "staff", 
"allocations": [{"commonness": 20, "minDepth": 10, "maxDepth": -1}]},

{"index": 421, "subtype": "Speed", 
"templates": "staff", 
"allocations": [{"commonness": 20, "minDepth": 40, "maxDepth": -1}]},

{"index": 419, "subtype": "Starlight", 
"templates": "staff", 
"allocations": [{"commonness": 20, "minDepth": 20, "maxDepth": 80}]},

{"index": 400, "subtype": "Summoning", 
"templates": "staff", 
"allocations": [{"commonness": 10, "minDepth": 10, "maxDepth": -1}]},

{"index": 420, "subtype": "Teleportation", 
"templates": "staff", 
"allocations": [{"commonness": 50, "minDepth": 20, "maxDepth": -1}]},

{"index": 423, "subtype": "the Magi", 
"templates": "staff", 
"allocations": [{"commonness": 20, "minDepth": 70, "maxDepth": -1}]},

{"index": 39, "subtype": "& Bastard Sword~", 
"templates": "sword", 
"stats": {"dieSize": 4, "balance": 0.55, "heft": 0.55, "numDice": 3}, 
"allocations": [{"commonness": 20, "minDepth": 20, "maxDepth": -1}], 
"description": "A two-edged sword, wielded with one hand or two."},

{"index": 38, "subtype": "& Broad Sword~", 
"templates": "sword", 
"stats": {"dieSize": 5, "balance": 0.4, "heft": 0.65, "numDice": 2}, 
"allocations": [{"commonness": 20, "minDepth": 12, "maxDepth": -1}], 
"description": "A two-edged sword with a basket hilt."},

{"index": 34, "subtype": "& Cutlass~", 
"templates": "sword", 
"stats": {"dieSize": 2, "balance": 0.6, "heft": 0.45, "numDice": 3}, 
"allocations": [{"commonness": 20, "minDepth": 8, "maxDepth": -1}], 
"description": "A thicker and slightly longer dagger, the cutlass is a slashing sword. It possesses a slight curve and only one side is sharp."},

{"index": 30, "subtype": "& Dagger~", 
"templates": "sword", 
"stats": {"dieSize": 2, "balance": 0.8, "heft": 0.2, "numDice": 2}, 
"allocations": [{"commonness": 20, "minDepth": 0, "maxDepth": -1}], 
"description": "A short two-edged blade, perfect for thrusting."},

{"index": 42, "subtype": "& Executioner's Sword~", 
"templates": "sword", 
"stats": {"dieSize": 12, "balance": 0.3, "heft": 0.7, "numDice": 2}, 
"allocations": [{"commonness": 20, "minDepth": 40, "maxDepth": -1}], 
"description": "A very heavy two-handed sword with no point."},

{"index": 40, "subtype": "& Katana~", 
"templates": "sword", 
"stats": {"dieSize": 3, "balance": 0.65, "heft": 0.4, "numDice": 5}, 
"allocations": [{"commonness": 20, "minDepth": 25, "maxDepth": -1}], 
"description": "A long, slightly curved sword with one sharp edge."},

{"index": 37, "subtype": "& Long Sword~", 
"templates": "sword", 
"stats": {"dieSize": 2, "balance": 0.55, "heft": 0.55, "numDice": 4}, 
"allocations": [{"commonness": 20, "minDepth": 12, "maxDepth": -1}], 
"description": "A thin-bladed sword used for thrusting and slashing."},

{"index": 31, "subtype": "& Main Gauche~", 
"templates": "sword", 
"stats": {"heft": 0.25, "dieSize": 2, "balance": 0.75, "baseArmor": 3, "numDice": 2}, 
"allocations": [{"commonness": 20, "minDepth": 6, "maxDepth": -1}], 
"description": "A parrying dagger for the left hand."},

{"index": 32, "subtype": "& Rapier~", 
"templates": "sword", 
"stats": {"dieSize": 2, "balance": 0.9, "heft": 0.1, "numDice": 3}, 
"allocations": [{"commonness": 20, "minDepth": 10, "maxDepth": -1}], 
"description": "A slender sword, perfect for thrusting."},

{"index": 36, "subtype": "& Scimitar~", 
"templates": "sword", 
"stats": {"dieSize": 3, "balance": 0.4, "heft": 0.65, "numDice": 3}, 
"allocations": [{"commonness": 20, "minDepth": 12, "maxDepth": -1}], 
"description": "A long sword with an extreme curve to the blade."},

{"index": 33, "subtype": "& Short Sword~", 
"templates": "sword", 
"stats": {"dieSize": 3, "balance": 0.55, "heft": 0.55, "numDice": 2}, 
"allocations": [{"commonness": 20, "minDepth": 3, "maxDepth": -1}], 
"description": "A two-edged blade of intermediate length."},

{"index": 35, "subtype": "& Tulwar~", 
"templates": "sword", 
"stats": {"dieSize": 4, "balance": 0.45, "heft": 0.6, "numDice": 2}, 
"allocations": [{"commonness": 20, "minDepth": 10, "maxDepth": -1}], 
"description": "A wider-bladed cousin of the scimitar, with less of a curve."},

{"index": 41, "subtype": "& Zweihander~", 
"templates": "sword", 
"stats": {"dieSize": 10, "balance": 0.3, "heft": 0.7, "numDice": 2}, 
"allocations": [{"commonness": 20, "minDepth": 30, "maxDepth": -1}], 
"description": "A sword requiring two hands to wield for all but the exceptionally strong."},

{"index": 379, "subtype": "Acid Balls", 
"templates": "wand", 
"flags": ["IGNORE_ACID"], 
"allocations": [{"commonness": 20, "minDepth": 50, "maxDepth": -1}]},

{"index": 374, "subtype": "Acid Bolts", 
"templates": "wand", 
"allocations": [{"commonness": 20, "minDepth": 30, "maxDepth": 60}]},

{"index": 396, "subtype": "Annihilation", 
"templates": "wand", 
"flags": ["IGNORE_ACID", "IGNORE_ELEC", "IGNORE_FIRE", "IGNORE_COLD"], 
"allocations": [{"commonness": 20, "minDepth": 60, "maxDepth": -1}]},

{"index": 388, "subtype": "Clone Monster", 
"templates": "wand", 
"allocations": [{"commonness": 20, "minDepth": 15, "maxDepth": -1}]},

{"index": 377, "subtype": "Cold Balls", 
"templates": "wand", 
"flags": ["IGNORE_COLD"], 
"allocations": [{"commonness": 20, "minDepth": 40, "maxDepth": -1}]},

{"index": 381, "subtype": "Confuse Monster", 
"templates": "wand", 
"allocations": [{"commonness": 20, "minDepth": 5, "maxDepth": 60}]},

{"index": 390, "subtype": "Disarming", 
"templates": "wand", 
"allocations": [{"commonness": 20, "minDepth": 20, "maxDepth": 60}]},

{"index": 394, "subtype": "Dragon's Breath", 
"templates": "wand", 
"flags": ["IGNORE_ACID", "IGNORE_ELEC", "IGNORE_FIRE", "IGNORE_COLD"], 
"allocations": [{"commonness": 20, "minDepth": 60, "maxDepth": -1}]},

{"index": 392, "subtype": "Dragon's Flame", 
"templates": "wand", 
"flags": ["IGNORE_ACID", "IGNORE_ELEC", "IGNORE_FIRE", "IGNORE_COLD"], 
"allocations": [{"commonness": 20, "minDepth": 50, "maxDepth": -1}]},

{"index": 393, "subtype": "Dragon's Frost", 
"templates": "wand", 
"flags": ["IGNORE_ACID", "IGNORE_ELEC", "IGNORE_FIRE", "IGNORE_COLD"], 
"allocations": [{"commonness": 20, "minDepth": 50, "maxDepth": -1}]},

{"index": 395, "subtype": "Drain Life", 
"templates": "wand", 
"allocations": [{"commonness": 50, "minDepth": 50, "maxDepth": -1}]},

{"index": 378, "subtype": "Fire Balls", 
"templates": "wand", 
"flags": ["IGNORE_FIRE"], 
"allocations": [{"commonness": 20, "minDepth": 50, "maxDepth": -1}]},

{"index": 373, "subtype": "Fire Bolts", 
"templates": "wand", 
"allocations": [{"commonness": 20, "minDepth": 30, "maxDepth": 60}]},

{"index": 372, "subtype": "Frost Bolts", 
"templates": "wand", 
"allocations": [{"commonness": 20, "minDepth": 20, "maxDepth": 60}]},

{"index": 398, "subtype": "Haste Monster", 
"templates": "wand", 
"allocations": [{"commonness": 10, "minDepth": 3, "maxDepth": 40}]},

{"index": 397, "subtype": "Heal Monster", 
"templates": "wand", 
"allocations": [{"commonness": 10, "minDepth": 3, "maxDepth": 40}]},

{"index": 384, "subtype": "Light", 
"templates": "wand", 
"allocations": [{"commonness": 20, "minDepth": 3, "maxDepth": 60}]},

{"index": 376, "subtype": "Lightning Balls", 
"templates": "wand", 
"flags": ["IGNORE_ELEC"], 
"allocations": [{"commonness": 20, "minDepth": 35, "maxDepth": -1}]},

{"index": 371, "subtype": "Lightning Bolts", 
"templates": "wand", 
"allocations": [{"commonness": 20, "minDepth": 15, "maxDepth": 60}]},

{"index": 370, "subtype": "Magic Missile", 
"templates": "wand", 
"allocations": [{"commonness": 20, "minDepth": 3, "maxDepth": 60}]},

{"index": 386, "subtype": "Polymorph", 
"templates": "wand", 
"allocations": [{"commonness": 20, "minDepth": 20, "maxDepth": 60}]},

{"index": 383, "subtype": "Scare Monster", 
"templates": "wand", 
"allocations": [{"commonness": 20, "minDepth": 10, "maxDepth": 60}]},

{"index": 382, "subtype": "Sleep Monster", 
"templates": "wand", 
"allocations": [{"commonness": 20, "minDepth": 5, "maxDepth": 60}]},

{"index": 380, "subtype": "Slow Monster", 
"templates": "wand", 
"allocations": [{"commonness": 20, "minDepth": 5, "maxDepth": 60}]},

{"index": 375, "subtype": "Stinking Cloud", 
"templates": "wand", 
"allocations": [{"commonness": 20, "minDepth": 5, "maxDepth": 60}]},

{"index": 385, "subtype": "Stone to Mud", 
"templates": "wand", 
"allocations": [{"commonness": 20, "minDepth": 10, "maxDepth": -1}]},

{"index": 389, "subtype": "Teleport Other", 
"templates": "wand", 
"allocations": [{"commonness": 20, "minDepth": 20, "maxDepth": -1}]},

{"index": 387, "subtype": "Trap/Door Destruction", 
"templates": "wand", 
"allocations": [{"commonness": 20, "minDepth": 10, "maxDepth": 60}]},

{"index": 391, "subtype": "Wonder", 
"templates": "wand", 
"flags": ["IGNORE_ACID", "IGNORE_ELEC", "IGNORE_FIRE", "IGNORE_COLD"], 
"allocations": [{"commonness": 20, "minDepth": 3, "maxDepth": 60}]}]
